{
  "project_info": {
    "project_number": "771694698130",
    "project_id": "fluttertodolist-95ff9",
    "storage_bucket": "fluttertodolist-95ff9.appspot.com"
  },
  "client": [
    {
      "client_info": {
        "mobilesdk_app_id": "1:771694698130:android:eec21c399aa88122ef504b",
        "android_client_info": {
          "package_name": "com.example.app1"
        }
      },
      "oauth_client": [
        {
          "client_id": "771694698130-iqit0ti6co2k362h9d7imh3u6bomh46l.apps.googleusercontent.com",
          "client_type": 3
        }
      ],
      "api_key": [
        {
          "current_key": "AIzaSyAeBk7Mi9kee6tjbk_DM1lyB5tc33nElxM"
        }
      ],
      "services": {
        "appinvite_service": {
          "other_platform_oauth_client": [
            {
              "client_id": "771694698130-iqit0ti6co2k362h9d7imh3u6bomh46l.apps.googleusercontent.com",
              "client_type": 3
            }
          ]
        }
      }
    },
    {
      "client_info": {
        "mobilesdk_app_id": "1:771694698130:android:4385f44309412452ef504b",
        "android_client_info": {
          "package_name": "com.example.grocery_app"
        }
      },
      "oauth_client": [
        {
          "client_id": "771694698130-iqit0ti6co2k362h9d7imh3u6bomh46l.apps.googleusercontent.com",
          "client_type": 3
        }
      ],
      "api_key": [
        {
          "current_key": "AIzaSyAeBk7Mi9kee6tjbk_DM1lyB5tc33nElxM"
        }
      ],
      "services": {
        "appinvite_service": {
          "other_platform_oauth_client": [
            {
              "client_id": "771694698130-iqit0ti6co2k362h9d7imh3u6bomh46l.apps.googleusercontent.com",
              "client_type": 3
            }
          ]
        }
      }
    },
    {
      "client_info": {
        "mobilesdk_app_id": "1:771694698130:android:5012c9381985510cef504b",
        "android_client_info": {
          "package_name": "com.example.todo_list"
        }
      },
      "oauth_client": [
        {
          "client_id": "771694698130-iqit0ti6co2k362h9d7imh3u6bomh46l.apps.googleusercontent.com",
          "client_type": 3
        }
      ],
      "api_key": [
        {
          "current_key": "AIzaSyAeBk7Mi9kee6tjbk_DM1lyB5tc33nElxM"
        }
      ],
      "services": {
        "appinvite_service": {
          "other_platform_oauth_client": [
            {
              "client_id": "771694698130-iqit0ti6co2k362h9d7imh3u6bomh46l.apps.googleusercontent.com",
              "client_type": 3
            }
          ]
        }
      }
    }
  ],
  "configuration_version": "1"
}